Area Analysis
…
R

html

056c039

Jaxson Freund

2024-02-27

R

Data

# A tibble: 1,550 × 2
   Distance  Area
   <fct>    <dbl>
 1 -2       0.781
 2 -2       0.874
 3 -2       1.45 
 4 -2       0.443
 5 -2       1.16 
 6 -2       0.863
 7 -2       0.81 
 8 -2       1.05 
 9 -2       1.03 
10 -2       0.939
# ℹ 1,540 more rows
…
# A tibble: 26 × 3
   Distance  Mean     SE
   <fct>    <dbl>  <dbl>
 1 -2       1.01  0.0767
 2 -1       1.27  0.0474
 3 0        1.31  0.0590
 4 1        1.27  0.0499
 5 2        1.23  0.0527
 6 3        1.26  0.0511
 7 4        1.12  0.0577
 8 5        1.21  0.0568
 9 6        1.19  0.0876
10 7        0.966 0.0524
# ℹ 16 more rows
…
